(kicad_sch (version 20230121) (generator eeschema)

  (uuid a5de39fb-9f31-4b48-be52-040d82ff8421)

  (paper "A5")

  (title_block
    (title "Amiga Joystickadapter")
    (date "2020-12-29")
    (rev "1.1")
  )

  (lib_symbols
    (symbol "Connector:DB25_Male" (pin_names (offset 1.016) hide) (in_bom yes) (on_board yes)
      (property "Reference" "J" (at 0 34.29 0)
        (effects (font (size 1.27 1.27)))
      )
      (property "Value" "DB25_Male" (at 0 -34.925 0)
        (effects (font (size 1.27 1.27)))
      )
      (property "Footprint" "" (at 0 0 0)
        (effects (font (size 1.27 1.27)) hide)
      )
      (property "Datasheet" " ~" (at 0 0 0)
        (effects (font (size 1.27 1.27)) hide)
      )
      (property "ki_keywords" "male D-SUB connector" (at 0 0 0)
        (effects (font (size 1.27 1.27)) hide)
      )
      (property "ki_description" "25-pin male D-SUB connector" (at 0 0 0)
        (effects (font (size 1.27 1.27)) hide)
      )
      (property "ki_fp_filters" "DSUB*Male*" (at 0 0 0)
        (effects (font (size 1.27 1.27)) hide)
      )
      (symbol "DB25_Male_0_1"
        (circle (center -1.778 -30.48) (radius 0.762)
          (stroke (width 0) (type default))
          (fill (type outline))
        )
        (circle (center -1.778 -25.4) (radius 0.762)
          (stroke (width 0) (type default))
          (fill (type outline))
        )
        (circle (center -1.778 -20.32) (radius 0.762)
          (stroke (width 0) (type default))
          (fill (type outline))
        )
        (circle (center -1.778 -15.24) (radius 0.762)
          (stroke (width 0) (type default))
          (fill (type outline))
        )
        (circle (center -1.778 -10.16) (radius 0.762)
          (stroke (width 0) (type default))
          (fill (type outline))
        )
        (circle (center -1.778 -5.08) (radius 0.762)
          (stroke (width 0) (type default))
          (fill (type outline))
        )
        (circle (center -1.778 0) (radius 0.762)
          (stroke (width 0) (type default))
          (fill (type outline))
        )
        (circle (center -1.778 5.08) (radius 0.762)
          (stroke (width 0) (type default))
          (fill (type outline))
        )
        (circle (center -1.778 10.16) (radius 0.762)
          (stroke (width 0) (type default))
          (fill (type outline))
        )
        (circle (center -1.778 15.24) (radius 0.762)
          (stroke (width 0) (type default))
          (fill (type outline))
        )
        (circle (center -1.778 20.32) (radius 0.762)
          (stroke (width 0) (type default))
          (fill (type outline))
        )
        (circle (center -1.778 25.4) (radius 0.762)
          (stroke (width 0) (type default))
          (fill (type outline))
        )
        (circle (center -1.778 30.48) (radius 0.762)
          (stroke (width 0) (type default))
          (fill (type outline))
        )
        (polyline
          (pts
            (xy -3.81 -30.48)
            (xy -2.54 -30.48)
          )
          (stroke (width 0) (type default))
          (fill (type none))
        )
        (polyline
          (pts
            (xy -3.81 -27.94)
            (xy 0.508 -27.94)
          )
          (stroke (width 0) (type default))
          (fill (type none))
        )
        (polyline
          (pts
            (xy -3.81 -25.4)
            (xy -2.54 -25.4)
          )
          (stroke (width 0) (type default))
          (fill (type none))
        )
        (polyline
          (pts
            (xy -3.81 -22.86)
            (xy 0.508 -22.86)
          )
          (stroke (width 0) (type default))
          (fill (type none))
        )
        (polyline
          (pts
            (xy -3.81 -20.32)
            (xy -2.54 -20.32)
          )
          (stroke (width 0) (type default))
          (fill (type none))
        )
        (polyline
          (pts
            (xy -3.81 -17.78)
            (xy 0.508 -17.78)
          )
          (stroke (width 0) (type default))
          (fill (type none))
        )
        (polyline
          (pts
            (xy -3.81 -15.24)
            (xy -2.54 -15.24)
          )
          (stroke (width 0) (type default))
          (fill (type none))
        )
        (polyline
          (pts
            (xy -3.81 -12.7)
            (xy 0.508 -12.7)
          )
          (stroke (width 0) (type default))
          (fill (type none))
        )
        (polyline
          (pts
            (xy -3.81 -10.16)
            (xy -2.54 -10.16)
          )
          (stroke (width 0) (type default))
          (fill (type none))
        )
        (polyline
          (pts
            (xy -3.81 -7.62)
            (xy 0.508 -7.62)
          )
          (stroke (width 0) (type default))
          (fill (type none))
        )
        (polyline
          (pts
            (xy -3.81 -5.08)
            (xy -2.54 -5.08)
          )
          (stroke (width 0) (type default))
          (fill (type none))
        )
        (polyline
          (pts
            (xy -3.81 -2.54)
            (xy 0.508 -2.54)
          )
          (stroke (width 0) (type default))
          (fill (type none))
        )
        (polyline
          (pts
            (xy -3.81 0)
            (xy -2.54 0)
          )
          (stroke (width 0) (type default))
          (fill (type none))
        )
        (polyline
          (pts
            (xy -3.81 2.54)
            (xy 0.508 2.54)
          )
          (stroke (width 0) (type default))
          (fill (type none))
        )
        (polyline
          (pts
            (xy -3.81 5.08)
            (xy -2.54 5.08)
          )
          (stroke (width 0) (type default))
          (fill (type none))
        )
        (polyline
          (pts
            (xy -3.81 7.62)
            (xy 0.508 7.62)
          )
          (stroke (width 0) (type default))
          (fill (type none))
        )
        (polyline
          (pts
            (xy -3.81 10.16)
            (xy -2.54 10.16)
          )
          (stroke (width 0) (type default))
          (fill (type none))
        )
        (polyline
          (pts
            (xy -3.81 12.7)
            (xy 0.508 12.7)
          )
          (stroke (width 0) (type default))
          (fill (type none))
        )
        (polyline
          (pts
            (xy -3.81 15.24)
            (xy -2.54 15.24)
          )
          (stroke (width 0) (type default))
          (fill (type none))
        )
        (polyline
          (pts
            (xy -3.81 17.78)
            (xy 0.508 17.78)
          )
          (stroke (width 0) (type default))
          (fill (type none))
        )
        (polyline
          (pts
            (xy -3.81 20.32)
            (xy -2.54 20.32)
          )
          (stroke (width 0) (type default))
          (fill (type none))
        )
        (polyline
          (pts
            (xy -3.81 22.86)
            (xy 0.508 22.86)
          )
          (stroke (width 0) (type default))
          (fill (type none))
        )
        (polyline
          (pts
            (xy -3.81 25.4)
            (xy -2.54 25.4)
          )
          (stroke (width 0) (type default))
          (fill (type none))
        )
        (polyline
          (pts
            (xy -3.81 27.94)
            (xy 0.508 27.94)
          )
          (stroke (width 0) (type default))
          (fill (type none))
        )
        (polyline
          (pts
            (xy -3.81 30.48)
            (xy -2.54 30.48)
          )
          (stroke (width 0) (type default))
          (fill (type none))
        )
        (polyline
          (pts
            (xy -3.81 -33.655)
            (xy 3.81 -29.845)
            (xy 3.81 29.845)
            (xy -3.81 33.655)
            (xy -3.81 -33.655)
          )
          (stroke (width 0.254) (type default))
          (fill (type background))
        )
        (circle (center 1.27 -27.94) (radius 0.762)
          (stroke (width 0) (type default))
          (fill (type outline))
        )
        (circle (center 1.27 -22.86) (radius 0.762)
          (stroke (width 0) (type default))
          (fill (type outline))
        )
        (circle (center 1.27 -17.78) (radius 0.762)
          (stroke (width 0) (type default))
          (fill (type outline))
        )
        (circle (center 1.27 -12.7) (radius 0.762)
          (stroke (width 0) (type default))
          (fill (type outline))
        )
        (circle (center 1.27 -7.62) (radius 0.762)
          (stroke (width 0) (type default))
          (fill (type outline))
        )
        (circle (center 1.27 -2.54) (radius 0.762)
          (stroke (width 0) (type default))
          (fill (type outline))
        )
        (circle (center 1.27 2.54) (radius 0.762)
          (stroke (width 0) (type default))
          (fill (type outline))
        )
        (circle (center 1.27 7.62) (radius 0.762)
          (stroke (width 0) (type default))
          (fill (type outline))
        )
        (circle (center 1.27 12.7) (radius 0.762)
          (stroke (width 0) (type default))
          (fill (type outline))
        )
        (circle (center 1.27 17.78) (radius 0.762)
          (stroke (width 0) (type default))
          (fill (type outline))
        )
        (circle (center 1.27 22.86) (radius 0.762)
          (stroke (width 0) (type default))
          (fill (type outline))
        )
        (circle (center 1.27 27.94) (radius 0.762)
          (stroke (width 0) (type default))
          (fill (type outline))
        )
      )
      (symbol "DB25_Male_1_1"
        (pin passive line (at -7.62 -30.48 0) (length 3.81)
          (name "1" (effects (font (size 1.27 1.27))))
          (number "1" (effects (font (size 1.27 1.27))))
        )
        (pin passive line (at -7.62 15.24 0) (length 3.81)
          (name "10" (effects (font (size 1.27 1.27))))
          (number "10" (effects (font (size 1.27 1.27))))
        )
        (pin passive line (at -7.62 20.32 0) (length 3.81)
          (name "11" (effects (font (size 1.27 1.27))))
          (number "11" (effects (font (size 1.27 1.27))))
        )
        (pin passive line (at -7.62 25.4 0) (length 3.81)
          (name "12" (effects (font (size 1.27 1.27))))
          (number "12" (effects (font (size 1.27 1.27))))
        )
        (pin passive line (at -7.62 30.48 0) (length 3.81)
          (name "13" (effects (font (size 1.27 1.27))))
          (number "13" (effects (font (size 1.27 1.27))))
        )
        (pin passive line (at -7.62 -27.94 0) (length 3.81)
          (name "P14" (effects (font (size 1.27 1.27))))
          (number "14" (effects (font (size 1.27 1.27))))
        )
        (pin passive line (at -7.62 -22.86 0) (length 3.81)
          (name "P15" (effects (font (size 1.27 1.27))))
          (number "15" (effects (font (size 1.27 1.27))))
        )
        (pin passive line (at -7.62 -17.78 0) (length 3.81)
          (name "P16" (effects (font (size 1.27 1.27))))
          (number "16" (effects (font (size 1.27 1.27))))
        )
        (pin passive line (at -7.62 -12.7 0) (length 3.81)
          (name "P17" (effects (font (size 1.27 1.27))))
          (number "17" (effects (font (size 1.27 1.27))))
        )
        (pin passive line (at -7.62 -7.62 0) (length 3.81)
          (name "P18" (effects (font (size 1.27 1.27))))
          (number "18" (effects (font (size 1.27 1.27))))
        )
        (pin passive line (at -7.62 -2.54 0) (length 3.81)
          (name "P19" (effects (font (size 1.27 1.27))))
          (number "19" (effects (font (size 1.27 1.27))))
        )
        (pin passive line (at -7.62 -25.4 0) (length 3.81)
          (name "2" (effects (font (size 1.27 1.27))))
          (number "2" (effects (font (size 1.27 1.27))))
        )
        (pin passive line (at -7.62 2.54 0) (length 3.81)
          (name "P20" (effects (font (size 1.27 1.27))))
          (number "20" (effects (font (size 1.27 1.27))))
        )
        (pin passive line (at -7.62 7.62 0) (length 3.81)
          (name "P21" (effects (font (size 1.27 1.27))))
          (number "21" (effects (font (size 1.27 1.27))))
        )
        (pin passive line (at -7.62 12.7 0) (length 3.81)
          (name "P22" (effects (font (size 1.27 1.27))))
          (number "22" (effects (font (size 1.27 1.27))))
        )
        (pin passive line (at -7.62 17.78 0) (length 3.81)
          (name "P23" (effects (font (size 1.27 1.27))))
          (number "23" (effects (font (size 1.27 1.27))))
        )
        (pin passive line (at -7.62 22.86 0) (length 3.81)
          (name "P24" (effects (font (size 1.27 1.27))))
          (number "24" (effects (font (size 1.27 1.27))))
        )
        (pin passive line (at -7.62 27.94 0) (length 3.81)
          (name "P25" (effects (font (size 1.27 1.27))))
          (number "25" (effects (font (size 1.27 1.27))))
        )
        (pin passive line (at -7.62 -20.32 0) (length 3.81)
          (name "3" (effects (font (size 1.27 1.27))))
          (number "3" (effects (font (size 1.27 1.27))))
        )
        (pin passive line (at -7.62 -15.24 0) (length 3.81)
          (name "4" (effects (font (size 1.27 1.27))))
          (number "4" (effects (font (size 1.27 1.27))))
        )
        (pin passive line (at -7.62 -10.16 0) (length 3.81)
          (name "5" (effects (font (size 1.27 1.27))))
          (number "5" (effects (font (size 1.27 1.27))))
        )
        (pin passive line (at -7.62 -5.08 0) (length 3.81)
          (name "6" (effects (font (size 1.27 1.27))))
          (number "6" (effects (font (size 1.27 1.27))))
        )
        (pin passive line (at -7.62 0 0) (length 3.81)
          (name "7" (effects (font (size 1.27 1.27))))
          (number "7" (effects (font (size 1.27 1.27))))
        )
        (pin passive line (at -7.62 5.08 0) (length 3.81)
          (name "8" (effects (font (size 1.27 1.27))))
          (number "8" (effects (font (size 1.27 1.27))))
        )
        (pin passive line (at -7.62 10.16 0) (length 3.81)
          (name "9" (effects (font (size 1.27 1.27))))
          (number "9" (effects (font (size 1.27 1.27))))
        )
      )
    )
    (symbol "Connector:DB9_Male" (pin_names (offset 1.016) hide) (in_bom yes) (on_board yes)
      (property "Reference" "J" (at 0 13.97 0)
        (effects (font (size 1.27 1.27)))
      )
      (property "Value" "DB9_Male" (at 0 -14.605 0)
        (effects (font (size 1.27 1.27)))
      )
      (property "Footprint" "" (at 0 0 0)
        (effects (font (size 1.27 1.27)) hide)
      )
      (property "Datasheet" " ~" (at 0 0 0)
        (effects (font (size 1.27 1.27)) hide)
      )
      (property "ki_keywords" "connector male D-SUB" (at 0 0 0)
        (effects (font (size 1.27 1.27)) hide)
      )
      (property "ki_description" "9-pin male D-SUB connector" (at 0 0 0)
        (effects (font (size 1.27 1.27)) hide)
      )
      (property "ki_fp_filters" "DSUB*Male*" (at 0 0 0)
        (effects (font (size 1.27 1.27)) hide)
      )
      (symbol "DB9_Male_0_1"
        (circle (center -1.778 -10.16) (radius 0.762)
          (stroke (width 0) (type default))
          (fill (type outline))
        )
        (circle (center -1.778 -5.08) (radius 0.762)
          (stroke (width 0) (type default))
          (fill (type outline))
        )
        (circle (center -1.778 0) (radius 0.762)
          (stroke (width 0) (type default))
          (fill (type outline))
        )
        (circle (center -1.778 5.08) (radius 0.762)
          (stroke (width 0) (type default))
          (fill (type outline))
        )
        (circle (center -1.778 10.16) (radius 0.762)
          (stroke (width 0) (type default))
          (fill (type outline))
        )
        (polyline
          (pts
            (xy -3.81 -10.16)
            (xy -2.54 -10.16)
          )
          (stroke (width 0) (type default))
          (fill (type none))
        )
        (polyline
          (pts
            (xy -3.81 -7.62)
            (xy 0.508 -7.62)
          )
          (stroke (width 0) (type default))
          (fill (type none))
        )
        (polyline
          (pts
            (xy -3.81 -5.08)
            (xy -2.54 -5.08)
          )
          (stroke (width 0) (type default))
          (fill (type none))
        )
        (polyline
          (pts
            (xy -3.81 -2.54)
            (xy 0.508 -2.54)
          )
          (stroke (width 0) (type default))
          (fill (type none))
        )
        (polyline
          (pts
            (xy -3.81 0)
            (xy -2.54 0)
          )
          (stroke (width 0) (type default))
          (fill (type none))
        )
        (polyline
          (pts
            (xy -3.81 2.54)
            (xy 0.508 2.54)
          )
          (stroke (width 0) (type default))
          (fill (type none))
        )
        (polyline
          (pts
            (xy -3.81 5.08)
            (xy -2.54 5.08)
          )
          (stroke (width 0) (type default))
          (fill (type none))
        )
        (polyline
          (pts
            (xy -3.81 7.62)
            (xy 0.508 7.62)
          )
          (stroke (width 0) (type default))
          (fill (type none))
        )
        (polyline
          (pts
            (xy -3.81 10.16)
            (xy -2.54 10.16)
          )
          (stroke (width 0) (type default))
          (fill (type none))
        )
        (polyline
          (pts
            (xy -3.81 -13.335)
            (xy -3.81 13.335)
            (xy 3.81 9.525)
            (xy 3.81 -9.525)
            (xy -3.81 -13.335)
          )
          (stroke (width 0.254) (type default))
          (fill (type background))
        )
        (circle (center 1.27 -7.62) (radius 0.762)
          (stroke (width 0) (type default))
          (fill (type outline))
        )
        (circle (center 1.27 -2.54) (radius 0.762)
          (stroke (width 0) (type default))
          (fill (type outline))
        )
        (circle (center 1.27 2.54) (radius 0.762)
          (stroke (width 0) (type default))
          (fill (type outline))
        )
        (circle (center 1.27 7.62) (radius 0.762)
          (stroke (width 0) (type default))
          (fill (type outline))
        )
      )
      (symbol "DB9_Male_1_1"
        (pin passive line (at -7.62 -10.16 0) (length 3.81)
          (name "1" (effects (font (size 1.27 1.27))))
          (number "1" (effects (font (size 1.27 1.27))))
        )
        (pin passive line (at -7.62 -5.08 0) (length 3.81)
          (name "2" (effects (font (size 1.27 1.27))))
          (number "2" (effects (font (size 1.27 1.27))))
        )
        (pin passive line (at -7.62 0 0) (length 3.81)
          (name "3" (effects (font (size 1.27 1.27))))
          (number "3" (effects (font (size 1.27 1.27))))
        )
        (pin passive line (at -7.62 5.08 0) (length 3.81)
          (name "4" (effects (font (size 1.27 1.27))))
          (number "4" (effects (font (size 1.27 1.27))))
        )
        (pin passive line (at -7.62 10.16 0) (length 3.81)
          (name "5" (effects (font (size 1.27 1.27))))
          (number "5" (effects (font (size 1.27 1.27))))
        )
        (pin passive line (at -7.62 -7.62 0) (length 3.81)
          (name "6" (effects (font (size 1.27 1.27))))
          (number "6" (effects (font (size 1.27 1.27))))
        )
        (pin passive line (at -7.62 -2.54 0) (length 3.81)
          (name "7" (effects (font (size 1.27 1.27))))
          (number "7" (effects (font (size 1.27 1.27))))
        )
        (pin passive line (at -7.62 2.54 0) (length 3.81)
          (name "8" (effects (font (size 1.27 1.27))))
          (number "8" (effects (font (size 1.27 1.27))))
        )
        (pin passive line (at -7.62 7.62 0) (length 3.81)
          (name "9" (effects (font (size 1.27 1.27))))
          (number "9" (effects (font (size 1.27 1.27))))
        )
      )
    )
    (symbol "Jumper:Jumper_2_Open" (pin_names (offset 0) hide) (in_bom yes) (on_board yes)
      (property "Reference" "JP" (at 0 2.794 0)
        (effects (font (size 1.27 1.27)))
      )
      (property "Value" "Jumper_2_Open" (at 0 -2.286 0)
        (effects (font (size 1.27 1.27)))
      )
      (property "Footprint" "" (at 0 0 0)
        (effects (font (size 1.27 1.27)) hide)
      )
      (property "Datasheet" "~" (at 0 0 0)
        (effects (font (size 1.27 1.27)) hide)
      )
      (property "ki_keywords" "Jumper SPST" (at 0 0 0)
        (effects (font (size 1.27 1.27)) hide)
      )
      (property "ki_description" "Jumper, 2-pole, open" (at 0 0 0)
        (effects (font (size 1.27 1.27)) hide)
      )
      (property "ki_fp_filters" "Jumper* TestPoint*2Pads* TestPoint*Bridge*" (at 0 0 0)
        (effects (font (size 1.27 1.27)) hide)
      )
      (symbol "Jumper_2_Open_0_0"
        (circle (center -2.032 0) (radius 0.508)
          (stroke (width 0) (type default))
          (fill (type none))
        )
        (circle (center 2.032 0) (radius 0.508)
          (stroke (width 0) (type default))
          (fill (type none))
        )
      )
      (symbol "Jumper_2_Open_0_1"
        (arc (start 1.524 1.27) (mid 0 1.778) (end -1.524 1.27)
          (stroke (width 0) (type default))
          (fill (type none))
        )
      )
      (symbol "Jumper_2_Open_1_1"
        (pin passive line (at -5.08 0 0) (length 2.54)
          (name "A" (effects (font (size 1.27 1.27))))
          (number "1" (effects (font (size 1.27 1.27))))
        )
        (pin passive line (at 5.08 0 180) (length 2.54)
          (name "B" (effects (font (size 1.27 1.27))))
          (number "2" (effects (font (size 1.27 1.27))))
        )
      )
    )
  )

  (junction (at 63.5 17.78) (diameter 1.016) (color 0 0 0 0)
    (uuid d0f87bd7-5ea3-41ba-b386-68bd4bc51c33)
  )

  (wire (pts (xy 50.8 41.91) (xy 127 41.91))
    (stroke (width 0) (type solid))
    (uuid 18e00031-6ae5-40d8-9677-2745f522f377)
  )
  (wire (pts (xy 99.06 82.55) (xy 127 82.55))
    (stroke (width 0) (type solid))
    (uuid 196da852-ec7b-4c23-9e18-aecaaf74859a)
  )
  (wire (pts (xy 93.98 36.83) (xy 127 36.83))
    (stroke (width 0) (type solid))
    (uuid 1de65e0c-0787-41f1-8cd5-35cbb6150cff)
  )
  (wire (pts (xy 50.8 52.07) (xy 96.52 52.07))
    (stroke (width 0) (type solid))
    (uuid 3d080e00-da2f-4f05-b30f-63945ec13237)
  )
  (wire (pts (xy 99.06 26.67) (xy 127 26.67))
    (stroke (width 0) (type solid))
    (uuid 48325a97-e66c-4b10-a610-ffe11eea1b0a)
  )
  (wire (pts (xy 50.8 67.31) (xy 96.52 67.31))
    (stroke (width 0) (type solid))
    (uuid 4cd30762-e64a-4e02-85ef-3efdad8a5497)
  )
  (wire (pts (xy 96.52 67.31) (xy 96.52 87.63))
    (stroke (width 0) (type solid))
    (uuid 53a3b6d6-06e9-458f-87e8-afb0aacf3f02)
  )
  (wire (pts (xy 99.06 57.15) (xy 99.06 26.67))
    (stroke (width 0) (type solid))
    (uuid 58d45b51-b573-4e60-90e9-546fb37e0baf)
  )
  (wire (pts (xy 63.5 17.78) (xy 63.5 20.32))
    (stroke (width 0) (type solid))
    (uuid 6110bbb9-b923-467b-8482-3b99502e8092)
  )
  (wire (pts (xy 91.44 90.17) (xy 127 90.17))
    (stroke (width 0) (type solid))
    (uuid 61c7a014-b848-47fb-b28b-770c026c1ac8)
  )
  (wire (pts (xy 101.6 39.37) (xy 127 39.37))
    (stroke (width 0) (type solid))
    (uuid 698859ad-a384-41b7-9805-ce5aa2c23ed1)
  )
  (wire (pts (xy 76.2 30.48) (xy 76.2 34.29))
    (stroke (width 0) (type solid))
    (uuid 6f4a3951-488c-4f3e-a937-65e78dcdbd57)
  )
  (wire (pts (xy 50.8 39.37) (xy 55.88 39.37))
    (stroke (width 0) (type solid))
    (uuid 77bef941-586f-466d-99fa-dc63eee0731f)
  )
  (wire (pts (xy 99.06 72.39) (xy 99.06 82.55))
    (stroke (width 0) (type solid))
    (uuid 7a528f23-6e69-4e3d-ac3f-e6323c3d26c8)
  )
  (wire (pts (xy 50.8 77.47) (xy 127 77.47))
    (stroke (width 0) (type solid))
    (uuid 842f0d35-4907-4e7f-bc04-a167c2ec46fd)
  )
  (wire (pts (xy 91.44 87.63) (xy 91.44 90.17))
    (stroke (width 0) (type solid))
    (uuid 8f878286-1d68-4f16-9a7e-d513128cd3d5)
  )
  (wire (pts (xy 50.8 87.63) (xy 91.44 87.63))
    (stroke (width 0) (type solid))
    (uuid 94359174-9af1-4434-9251-34bc0ea89a20)
  )
  (wire (pts (xy 93.98 92.71) (xy 127 92.71))
    (stroke (width 0) (type solid))
    (uuid 97a9ebcd-f1d7-4043-89d1-bce0f275db6c)
  )
  (wire (pts (xy 50.8 57.15) (xy 99.06 57.15))
    (stroke (width 0) (type solid))
    (uuid 9a0fc50d-470b-45ac-b68a-a7cca6cfd40d)
  )
  (wire (pts (xy 50.8 62.23) (xy 93.98 62.23))
    (stroke (width 0) (type solid))
    (uuid 9ff52cf4-5383-4d49-87a4-5b942e9b63eb)
  )
  (wire (pts (xy 63.5 17.78) (xy 76.2 17.78))
    (stroke (width 0) (type solid))
    (uuid a2ff0d7e-9203-4400-84c7-4e78aba92ac3)
  )
  (wire (pts (xy 101.6 97.79) (xy 101.6 39.37))
    (stroke (width 0) (type solid))
    (uuid a301f389-1039-402a-96aa-a1e177d4a2a5)
  )
  (wire (pts (xy 96.52 31.75) (xy 127 31.75))
    (stroke (width 0) (type solid))
    (uuid a7d47ea4-d59a-4805-9749-aa5dde303967)
  )
  (wire (pts (xy 63.5 30.48) (xy 63.5 85.09))
    (stroke (width 0) (type solid))
    (uuid ac750dec-ab89-4e6a-83ac-b1b941bdca89)
  )
  (wire (pts (xy 93.98 46.99) (xy 93.98 36.83))
    (stroke (width 0) (type solid))
    (uuid b49957d7-50c2-4857-ad76-15e0da99c803)
  )
  (wire (pts (xy 50.8 46.99) (xy 93.98 46.99))
    (stroke (width 0) (type solid))
    (uuid b8fc93cd-8b27-401b-bb6a-5f294cbf8501)
  )
  (wire (pts (xy 96.52 52.07) (xy 96.52 31.75))
    (stroke (width 0) (type solid))
    (uuid bf80af48-02d6-4a45-a4b5-0fb8b3fe49a0)
  )
  (wire (pts (xy 63.5 85.09) (xy 127 85.09))
    (stroke (width 0) (type solid))
    (uuid c32da142-350b-49ea-a3ba-d21ae83227cb)
  )
  (wire (pts (xy 96.52 87.63) (xy 127 87.63))
    (stroke (width 0) (type solid))
    (uuid cf19d676-a01b-4265-968e-dfb9dc67bee1)
  )
  (wire (pts (xy 55.88 39.37) (xy 55.88 17.78))
    (stroke (width 0) (type solid))
    (uuid d4b39f9f-12cf-4081-96d2-20a1def9181d)
  )
  (wire (pts (xy 76.2 34.29) (xy 127 34.29))
    (stroke (width 0) (type solid))
    (uuid d611e301-03e9-4380-a2b1-02d6c8f8afcd)
  )
  (wire (pts (xy 93.98 62.23) (xy 93.98 92.71))
    (stroke (width 0) (type solid))
    (uuid e87acd3e-944b-46cf-9b7c-c09300519328)
  )
  (wire (pts (xy 50.8 72.39) (xy 99.06 72.39))
    (stroke (width 0) (type solid))
    (uuid ee7de1e0-cdc3-40dd-97bf-8e4b648b53fc)
  )
  (wire (pts (xy 76.2 17.78) (xy 76.2 20.32))
    (stroke (width 0) (type solid))
    (uuid f517ca3e-6e47-4d23-91e5-23cd99546c18)
  )
  (wire (pts (xy 50.8 97.79) (xy 101.6 97.79))
    (stroke (width 0) (type solid))
    (uuid f94ec30a-1aeb-460f-a21e-50782b56f9a3)
  )
  (wire (pts (xy 55.88 17.78) (xy 63.5 17.78))
    (stroke (width 0) (type solid))
    (uuid fea70f51-e269-4fc2-8548-cc697ed69e38)
  )

  (global_label "GND" (shape input) (at 50.8 80.01 0)
    (effects (font (size 1.27 1.27)) (justify left))
    (uuid 1629cac1-78c8-49bd-9cef-abc256813b8b)
    (property "Intersheetrefs" "${INTERSHEET_REFS}" (at 58.6076 80.0894 0)
      (effects (font (size 1.27 1.27)) (justify left) hide)
    )
  )
  (global_label "GND" (shape input) (at 50.8 95.25 0)
    (effects (font (size 1.27 1.27)) (justify left))
    (uuid 19e8b1d2-1fb0-481c-8e0e-8e2151ed279f)
    (property "Intersheetrefs" "${INTERSHEET_REFS}" (at 58.6076 95.3294 0)
      (effects (font (size 1.27 1.27)) (justify left) hide)
    )
  )
  (global_label "GND" (shape input) (at 50.8 69.85 0)
    (effects (font (size 1.27 1.27)) (justify left))
    (uuid 23b35997-55b6-4608-ad38-9ad83d3dfdbf)
    (property "Intersheetrefs" "${INTERSHEET_REFS}" (at 58.6076 69.9294 0)
      (effects (font (size 1.27 1.27)) (justify left) hide)
    )
  )
  (global_label "GND" (shape input) (at 50.8 74.93 0)
    (effects (font (size 1.27 1.27)) (justify left))
    (uuid 420b43be-18b1-4bde-bcfe-b2d809545041)
    (property "Intersheetrefs" "${INTERSHEET_REFS}" (at 58.6076 75.0094 0)
      (effects (font (size 1.27 1.27)) (justify left) hide)
    )
  )
  (global_label "GND" (shape input) (at 50.8 85.09 0)
    (effects (font (size 1.27 1.27)) (justify left))
    (uuid 43e2c3b8-5516-4302-bad1-d5afdcd9abcb)
    (property "Intersheetrefs" "${INTERSHEET_REFS}" (at 58.6076 85.1694 0)
      (effects (font (size 1.27 1.27)) (justify left) hide)
    )
  )
  (global_label "GND" (shape input) (at 127 29.21 180)
    (effects (font (size 1.27 1.27)) (justify right))
    (uuid 780f1c1f-d13d-4df1-ad41-a533b3f2e704)
    (property "Intersheetrefs" "${INTERSHEET_REFS}" (at 119.1924 29.1306 0)
      (effects (font (size 1.27 1.27)) (justify right) hide)
    )
  )
  (global_label "GND" (shape input) (at 50.8 64.77 0)
    (effects (font (size 1.27 1.27)) (justify left))
    (uuid 8cc2ca36-0330-44c9-b60d-754ca9eef001)
    (property "Intersheetrefs" "${INTERSHEET_REFS}" (at 58.6076 64.8494 0)
      (effects (font (size 1.27 1.27)) (justify left) hide)
    )
  )
  (global_label "GND" (shape input) (at 50.8 90.17 0)
    (effects (font (size 1.27 1.27)) (justify left))
    (uuid 90ee95f9-a6ce-44c7-8a41-aa805cc90e71)
    (property "Intersheetrefs" "${INTERSHEET_REFS}" (at 58.6076 90.2494 0)
      (effects (font (size 1.27 1.27)) (justify left) hide)
    )
  )
  (global_label "GND" (shape input) (at 50.8 59.69 0)
    (effects (font (size 1.27 1.27)) (justify left))
    (uuid ce47d2e7-4be3-42cc-9d02-ff7866b8bfe8)
    (property "Intersheetrefs" "${INTERSHEET_REFS}" (at 58.6076 59.7694 0)
      (effects (font (size 1.27 1.27)) (justify left) hide)
    )
  )
  (global_label "GND" (shape input) (at 127 80.01 180)
    (effects (font (size 1.27 1.27)) (justify right))
    (uuid ce9ea6e1-7c08-4dc0-825d-3d3e084845b5)
    (property "Intersheetrefs" "${INTERSHEET_REFS}" (at 119.1924 79.9306 0)
      (effects (font (size 1.27 1.27)) (justify right) hide)
    )
  )

  (symbol (lib_id "Jumper:Jumper_2_Open") (at 76.2 25.4 270) (unit 1)
    (in_bom yes) (on_board yes) (dnp no)
    (uuid 699772a6-c5c2-4509-8a73-f4b3c66bcd50)
    (property "Reference" "Vcc3" (at 78.613 24.251 90)
      (effects (font (size 1.27 1.27)) (justify left))
    )
    (property "Value" "Jumper_2_Open" (at 83.6931 18.9293 0)
      (effects (font (size 1.27 1.27)) (justify left) hide)
    )
    (property "Footprint" "Connector_PinHeader_2.54mm:PinHeader_1x02_P2.54mm_Vertical" (at 76.2 25.4 0)
      (effects (font (size 1.27 1.27)) hide)
    )
    (property "Datasheet" "~" (at 76.2 25.4 0)
      (effects (font (size 1.27 1.27)) hide)
    )
    (pin "1" (uuid 1996c9f7-6a44-40dd-9f39-941404b9790f))
    (pin "2" (uuid 36231069-3b41-4a04-baff-0ec7aa76df9f))
    (instances
      (project "adapter"
        (path "/a5de39fb-9f31-4b48-be52-040d82ff8421"
          (reference "Vcc3") (unit 1)
        )
      )
    )
  )

  (symbol (lib_id "Connector:DB25_Male") (at 43.18 67.31 180) (unit 1)
    (in_bom yes) (on_board yes) (dnp no)
    (uuid 81b22300-13b4-48b1-bca1-f5add85d0701)
    (property "Reference" "ParallelPort1" (at 45.212 29.445 0)
      (effects (font (size 1.27 1.27)))
    )
    (property "Value" "DB25_Male" (at 45.212 31.7435 0)
      (effects (font (size 1.27 1.27)))
    )
    (property "Footprint" "Connector_Dsub:DSUB-25_Male_EdgeMount_P2.77mm" (at 43.18 67.31 0)
      (effects (font (size 1.27 1.27)) hide)
    )
    (property "Datasheet" " ~" (at 43.18 67.31 0)
      (effects (font (size 1.27 1.27)) hide)
    )
    (pin "1" (uuid 484326b5-5f60-4625-8d68-6b8d12487689))
    (pin "10" (uuid e8f43c05-fd8f-4a46-b221-9045faac473f))
    (pin "11" (uuid ee21165f-b739-48f4-be8e-df568e717391))
    (pin "12" (uuid 35ecf093-1a08-4f30-abee-60a8722774bd))
    (pin "13" (uuid 1e52d3ac-e62a-4fee-9c22-f15aa9d101a5))
    (pin "14" (uuid a0841a3e-c17f-48b0-9b08-027124aeb56c))
    (pin "15" (uuid 7611f8a5-fcce-46fe-9f63-5d061d2b294a))
    (pin "16" (uuid a8f823f6-8792-4f9f-bf84-08aaa22a7c63))
    (pin "17" (uuid 6d87cc29-bc60-46c9-8354-0aca60f66479))
    (pin "18" (uuid c9c12075-86a5-4cf6-bffa-5c73170c61a4))
    (pin "19" (uuid d76dca2e-1afe-4848-a000-d41230696b0c))
    (pin "2" (uuid 35e59e42-a0fe-4343-b5a1-5c939993c472))
    (pin "20" (uuid b51c40c0-7f0c-4734-98ce-c6cb58aa8130))
    (pin "21" (uuid 38ee0649-13c1-4c7f-a57c-aaa35e78a3df))
    (pin "22" (uuid 49d94663-39f9-4a8b-810d-6722058901f2))
    (pin "23" (uuid 15e9ac94-9ed7-4ade-9e40-f68c24cf900f))
    (pin "24" (uuid 6a5228ad-9176-41f2-a664-3e5c505630b6))
    (pin "25" (uuid 8ea0fd78-be8b-44c4-8b79-ede5898b3f79))
    (pin "3" (uuid e247748c-5a3a-4ea7-8828-57b0160c4e30))
    (pin "4" (uuid ba3fc8b3-5f31-4f11-888d-245719bb6d1d))
    (pin "5" (uuid 2d5fc859-c9f0-45e1-8464-9f33a2d444ed))
    (pin "6" (uuid 9708ef67-e9e1-48c4-adab-ae168683027a))
    (pin "7" (uuid 3d5e24fc-ce05-4df5-8124-b41f85ca7b0d))
    (pin "8" (uuid 2fe3bfc1-79c0-4973-93ed-dc33cb78c1c0))
    (pin "9" (uuid f6c08b36-6140-4fee-99aa-787c4120d396))
    (instances
      (project "adapter"
        (path "/a5de39fb-9f31-4b48-be52-040d82ff8421"
          (reference "ParallelPort1") (unit 1)
        )
      )
    )
  )

  (symbol (lib_id "Connector:DB9_Male") (at 134.62 82.55 0) (unit 1)
    (in_bom yes) (on_board yes) (dnp no)
    (uuid 8d25d084-414b-4940-b7ee-4784feed2ba2)
    (property "Reference" "Joystick4" (at 139.192 81.401 0)
      (effects (font (size 1.27 1.27)) (justify left))
    )
    (property "Value" "DB9_Male" (at 139.1921 83.6993 0)
      (effects (font (size 1.27 1.27)) (justify left))
    )
    (property "Footprint" "Connector_Dsub:DSUB-9_Male_EdgeMount_P2.77mm" (at 134.62 82.55 0)
      (effects (font (size 1.27 1.27)) hide)
    )
    (property "Datasheet" " ~" (at 134.62 82.55 0)
      (effects (font (size 1.27 1.27)) hide)
    )
    (pin "1" (uuid 1eb795c9-7cb7-4f68-9e64-b04c7d53f556))
    (pin "2" (uuid a61c227c-4b22-4975-8c6c-e272fe11e81f))
    (pin "3" (uuid 2f3269d7-8bc9-4843-95c0-22c808adb238))
    (pin "4" (uuid b9dbaf07-b281-4a8b-976d-43e649cbe7ec))
    (pin "5" (uuid 588c2038-0f0b-4cc7-a60d-87e2fb073ab0))
    (pin "6" (uuid 9a89c637-eebc-41d6-8ada-cb0d332dfb33))
    (pin "7" (uuid 470aafeb-2092-402a-aa78-b7d0fd9f3936))
    (pin "8" (uuid 4b16c48f-34e5-46a7-bf40-17e8766f89c6))
    (pin "9" (uuid 5ed71960-2ee8-499c-95a4-bf7515a7aef5))
    (instances
      (project "adapter"
        (path "/a5de39fb-9f31-4b48-be52-040d82ff8421"
          (reference "Joystick4") (unit 1)
        )
      )
    )
  )

  (symbol (lib_id "Connector:DB9_Male") (at 134.62 31.75 0) (unit 1)
    (in_bom yes) (on_board yes) (dnp no)
    (uuid d7318c77-e8bd-4feb-afc5-ad5e1fc1dfc6)
    (property "Reference" "Joystick3" (at 139.192 30.601 0)
      (effects (font (size 1.27 1.27)) (justify left))
    )
    (property "Value" "DB9_Male" (at 139.1921 32.8993 0)
      (effects (font (size 1.27 1.27)) (justify left))
    )
    (property "Footprint" "Connector_Dsub:DSUB-9_Male_EdgeMount_P2.77mm" (at 134.62 31.75 0)
      (effects (font (size 1.27 1.27)) hide)
    )
    (property "Datasheet" " ~" (at 134.62 31.75 0)
      (effects (font (size 1.27 1.27)) hide)
    )
    (pin "1" (uuid 9ff29b40-6273-4e1a-9d3a-71ef20ea9f36))
    (pin "2" (uuid 3e70d1c2-743c-4be5-b6f6-bca03f5fd071))
    (pin "3" (uuid e4e5e80f-dcbe-40b6-ac05-89e4c8b9cb20))
    (pin "4" (uuid c4bb5b6b-bc19-48ab-91bc-4b2587cc99ef))
    (pin "5" (uuid 8fab6fd6-819d-4b70-a1b6-d9e3b3ced423))
    (pin "6" (uuid 2e37d4e4-0ad1-42ac-b6af-e823a191df03))
    (pin "7" (uuid 8adf9f7f-9f68-4af1-911f-799f5829d8b4))
    (pin "8" (uuid 5ae8d8b4-8d81-472a-9d68-8537677fa777))
    (pin "9" (uuid 212db953-916b-420e-aa45-e206cccf8d71))
    (instances
      (project "adapter"
        (path "/a5de39fb-9f31-4b48-be52-040d82ff8421"
          (reference "Joystick3") (unit 1)
        )
      )
    )
  )

  (symbol (lib_id "Jumper:Jumper_2_Open") (at 63.5 25.4 270) (unit 1)
    (in_bom yes) (on_board yes) (dnp no)
    (uuid ee5bea08-b4bf-491c-84a4-106c9035b4d5)
    (property "Reference" "Vcc4" (at 65.913 24.251 90)
      (effects (font (size 1.27 1.27)) (justify left))
    )
    (property "Value" "Jumper_2_Open" (at 70.9931 18.9293 0)
      (effects (font (size 1.27 1.27)) (justify left) hide)
    )
    (property "Footprint" "Connector_PinHeader_2.54mm:PinHeader_1x02_P2.54mm_Vertical" (at 63.5 25.4 0)
      (effects (font (size 1.27 1.27)) hide)
    )
    (property "Datasheet" "~" (at 63.5 25.4 0)
      (effects (font (size 1.27 1.27)) hide)
    )
    (pin "1" (uuid 23fa4c71-142b-43d4-bd6b-e91574d7b0cb))
    (pin "2" (uuid bb4d4c65-9785-49b9-a615-888a907ac96e))
    (instances
      (project "adapter"
        (path "/a5de39fb-9f31-4b48-be52-040d82ff8421"
          (reference "Vcc4") (unit 1)
        )
      )
    )
  )

  (sheet_instances
    (path "/" (page "1"))
  )
)
